Collapse Injections — collapse_injections • claman
…
#> Please use `funs()` instead.
#> See vignette('programming') for more help
#> Warning: `funs()` was deprecated in dplyr 0.8.0.
#> Please use a list of either functions or lambdas: 
#> 
#>   # Simple named list: 
#>   list(mean = mean, median = median)
#> 
#>   # Auto named with `tibble::lst()`: 
#>   tibble::lst(mean, median)
#> 
#>   # Using lambdas
#>   list(~ mean(., trim = .2), ~ median(., na.rm = TRUE))
#> $features
#> # A tibble: 106 x 13
#>    groupId compoundName       smiles adductName tagString    mz    rt compoundDB
#>    <fct>   <chr>              <chr>  <chr>      <chr>     <dbl> <dbl> <chr>     
#>  1 1       Ribose-P           NA     NA         ""           NA    NA NA        
#>  2 2       OMP                NA     NA         ""           NA    NA NA        
#>  3 3       1,3-diphopshategl… NA     NA         ""           NA    NA NA        
#>  4 4       3-hydroxy-3-methy… NA     NA         ""           NA    NA NA        
#>  5 5       3-phosphoglycerate NA     NA         ""           NA    NA NA        
#>  6 6       6-phospho-D-gluco… NA     NA         ""           NA    NA NA        
#>  7 7       acetyl-CoA         NA     NA         ""           NA    NA NA        
#>  8 8       aconitate          NA     NA         ""           NA    NA NA        
#>  9 9       adenosine          NA     NA         ""           NA    NA NA        
#> 10 10      ADP                NA     NA         ""           NA    NA NA        
#> # … with 96 more rows, and 5 more variables: searchTableName <chr>,
#> #   label <chr>, peak_label <chr>, method_tag <chr>, pathway <chr>
#> 
#> $samples
#> # A tibble: 60 x 10
#>    condition filename month    DR limitation exp_ref extraction reference
#>        <int> <chr>    <chr> <dbl> <chr>      <chr>   <chr>          <int>
#>  1         1 NA       Jun   0.055 NH4        exp     filter            53
#>  2         2 NA       Jun   0.055 NH4        exp     pellet            54
#>  3         3 NA       Jun   0.173 NH4        exp     filter            53
#>  4         4 NA       Jun   0.173 NH4        exp     pellet            54
#>  5         5 NA       Jun   0.21  NH4        exp     filter            53
#>  6         6 NA       Jun   0.21  NH4        exp     pellet            54
#>  7         7 NA       Jun   0.29  NH4        exp     filter            53
#>  8         8 NA       Jun   0.29  NH4        exp     pellet            54
#>  9         9 NA       Jun   0.056 URA        exp     filter            53
#> 10        10 NA       Jun   0.056 URA        exp     pellet            54
#> # … with 50 more rows, and 2 more variables: sampleId <fct>, name <chr>
#> 
#> $measurements
#> # A tibble: 6,360 x 3
#>    groupId sampleId log2_abundance
#>    <fct>   <fct>             <dbl>
#>  1 1       1                  15.0
#>  2 1       2                  15.4
#>  3 1       3                  15.5
#>  4 1       4                  16.0
#>  5 1       5                  15.5
#>  6 1       6                  15.8
#>  7 1       7                  16.1
#>  8 1       8                  16.4
#>  9 1       9                  13.8
#> 10 1       10                 14.5
#> # … with 6,350 more rows
…
