Find Pathway Enrichments — find_pathway_enrichments • claman
…
find_pathway_enrichments(
  mzroll_list = nplug_mzroll_normalized,
  regression_significance,
  pathway_list,
  test_absolute_effects = FALSE,
  enrichment_method = "fisher"
)

#> # A tibble: 100 × 9
#>    term   pathway estimate p.value conf.low conf.high method  alternative qvalue
#>    <chr>  <chr>      <dbl>   <dbl>    <dbl>     <dbl> <chr>   <chr>        <dbl>
#>  1 limit… Pentos…    3.85    0.174  0.585         Inf Fisher… greater      0.758
#>  2 limit… Pyrimi…    2.04    0.228  0.588         Inf Fisher… greater      0.758
#>  3 limit… Glycol…    2.49    0.207  0.582         Inf Fisher… greater      0.758
#>  4 limit… Lipid …    0.250   0.963  0.00837       Inf Fisher… greater      0.963
#>  5 limit… TCA cy…    0.380   0.961  0.0903        Inf Fisher… greater      0.963
#>  6 limit… Purine…    0.472   0.939  0.142         Inf Fisher… greater      0.963
#>  7 limit… Energe…    1.22    0.541  0.316         Inf Fisher… greater      0.963
#>  8 limit… Amino …    1.41    0.376  0.496         Inf Fisher… greater      0.940
#>  9 limit… Amino …    0.691   0.823  0.210         Inf Fisher… greater      0.963
#> 10 limit… Amino …    0.618   0.855  0.155         Inf Fisher… greater      0.963
#> # … with 90 more rows
…
