Process mzRoll — process_mzroll • claman
…
features: one row per unique analyte (defined by a unique
    groupId),

samples: one row per unique sample (defined by a unique sampleId),

measurements: one row per peak (samples x peakgroups)

And, a design list which tracks the variables in each table.

    Examples

process_mzroll(nplug_mzroll())

#> $features
#> # A tibble: 106 x 12
#>    groupId compoundName       smiles adductName tagString    mz    rt compoundDB
#>    <fct>   <chr>              <chr>  <chr>      <chr>     <dbl> <dbl> <chr>     
#>  1 1       Ribose-P           NA     NA         ""           NA    NA NA        
#>  2 2       OMP                NA     NA         ""           NA    NA NA        
#>  3 3       1,3-diphopshategl… NA     NA         ""           NA    NA NA        
#>  4 4       3-hydroxy-3-methy… NA     NA         ""           NA    NA NA        
#>  5 5       3-phosphoglycerate NA     NA         ""           NA    NA NA        
#>  6 6       6-phospho-D-gluco… NA     NA         ""           NA    NA NA        
#>  7 7       acetyl-CoA         NA     NA         ""           NA    NA NA        
#>  8 8       aconitate          NA     NA         ""           NA    NA NA        
#>  9 9       adenosine          NA     NA         ""           NA    NA NA        
#> 10 10      ADP                NA     NA         ""           NA    NA NA        
#> # … with 96 more rows, and 4 more variables: searchTableName <chr>,
#> #   label <chr>, peak_label <chr>, method_tag <chr>
#> 
#> $samples
#> # A tibble: 136 x 3
#>    sampleId name               filename
#>    <fct>    <chr>              <chr>   
#>  1 1        NH4_0.055_filter_b NA      
#>  2 2        NH4_0.055_filter_d NA      
#>  3 3        NH4_0.055_pellet_a NA      
#>  4 4        NH4_0.055_pellet_c NA      
#>  5 5        NH4_0.173_filter_b NA      
#>  6 6        NH4_0.173_filter_d NA      
#>  7 7        NH4_0.173_pellet_a NA      
#>  8 8        NH4_0.173_pellet_c NA      
#>  9 9        NH4_0.210_filter_b NA      
#> 10 10       NH4_0.210_filter_d NA      
#> # … with 126 more rows
#> 
#> $measurements
#> # A tibble: 14,416 x 4
#>    groupId sampleId log2_abundance centered_log2_abundance
#>    <fct>   <fct>             <dbl>                   <dbl>
#>  1 2       1                  8.23                  -1.27 
#>  2 4       1                  8.23                  -0.816
#>  3 15      1                  8.23                  -4.60 
#>  4 25      1                  8.23                  -3.23 
#>  5 26      1                  8.23                  -2.21 
#>  6 30      1                  8.23                  -1.18 
#>  7 40      1                  8.23                  -0.318
#>  8 51      1                  8.23                  -1.10 
#>  9 56      1                  8.23                  -0.448
#> 10 57      1                  8.23                  -3.80 
#> # … with 14,406 more rows
…
